{
  "project_info": {
    "project_number": "188134561397",
    "firebase_url": "https://meme-creator-79ea3.firebaseio.com",
    "project_id": "meme-creator-79ea3",
    "storage_bucket": "meme-creator-79ea3.appspot.com"
  },
  "client": [
    {
      "client_info": {
        "mobilesdk_app_id": "1:188134561397:android:fd5c20239d70cb50",
        "android_client_info": {
          "package_name": "com.appnet.app.meme"
        }
      },
      "oauth_client": [
        {
          "client_id": "188134561397-59uqu5l9lk52u1j3dalp56ji2c1dembp.apps.googleusercontent.com",
          "client_type": 3
        }
      ],
      "api_key": [
        {
          "current_key": "AIzaSyCFlUN_EeUI6D3A3blsNBScHU_cnuVf6vA"
        }
      ],
      "services": {
        "analytics_service": {
          "status": 1
        },
        "appinvite_service": {
          "status": 1,
          "other_platform_oauth_client": []
        },
        "ads_service": {
          "status": 2
        }
      }
    },
    {
      "client_info": {
        "mobilesdk_app_id": "1:188134561397:android:5fa30e29f1c771fd",
        "android_client_info": {
          "package_name": "com.master.curantoman.crypto"
        }
      },
      "oauth_client": [
        {
          "client_id": "188134561397-59uqu5l9lk52u1j3dalp56ji2c1dembp.apps.googleusercontent.com",
          "client_type": 3
        }
      ],
      "api_key": [
        {
          "current_key": "AIzaSyCFlUN_EeUI6D3A3blsNBScHU_cnuVf6vA"
        }
      ],
      "services": {
        "analytics_service": {
          "status": 1
        },
        "appinvite_service": {
          "status": 1,
          "other_platform_oauth_client": []
        },
        "ads_service": {
          "status": 2
        }
      }
    }
  ],
  "configuration_version": "1"
}